^C:\USERS\SERGIO\DOCUMENTS\VISUAL STUDIO 2013\PROJECTS\BJORKLUND'S ALGORITHM\BJORKLUND'S ALGORITHM\BJORKLUND.CPP|C:\USERS\SERGIO\DOCUMENTS\VISUAL STUDIO 2013\PROJECTS\BJORKLUND'S ALGORITHM\BJORKLUND'S ALGORITHM\MAIN.CPP
C:\USERS\SERGIO\DOCUMENTS\VISUAL STUDIO 2013\PROJECTS\BJORKLUND'S ALGORITHM\BJORKLUND'S ALGORITHM\DEBUG\VC120.PDB
C:\USERS\SERGIO\DOCUMENTS\VISUAL STUDIO 2013\PROJECTS\BJORKLUND'S ALGORITHM\BJORKLUND'S ALGORITHM\DEBUG\VC120.IDB
C:\USERS\SERGIO\DOCUMENTS\VISUAL STUDIO 2013\PROJECTS\BJORKLUND'S ALGORITHM\BJORKLUND'S ALGORITHM\DEBUG\BJORKLUND.OBJ
C:\USERS\SERGIO\DOCUMENTS\VISUAL STUDIO 2013\PROJECTS\BJORKLUND'S ALGORITHM\BJORKLUND'S ALGORITHM\DEBUG\MAIN.OBJ
^C:\USERS\SERGIO\DOCUMENTS\VISUAL STUDIO 2013\PROJECTS\BJORKLUND'S ALGORITHM\BJORKLUND'S ALGORITHM\BJORKLUND.CPP
C:\USERS\SERGIO\DOCUMENTS\VISUAL STUDIO 2013\PROJECTS\BJORKLUND'S ALGORITHM\BJORKLUND'S ALGORITHM\DEBUG\VC120.PDB
C:\USERS\SERGIO\DOCUMENTS\VISUAL STUDIO 2013\PROJECTS\BJORKLUND'S ALGORITHM\BJORKLUND'S ALGORITHM\DEBUG\VC120.IDB
C:\USERS\SERGIO\DOCUMENTS\VISUAL STUDIO 2013\PROJECTS\BJORKLUND'S ALGORITHM\BJORKLUND'S ALGORITHM\DEBUG\BJORKLUND.OBJ
^C:\USERS\SERGIO\DOCUMENTS\VISUAL STUDIO 2013\PROJECTS\BJORKLUND'S ALGORITHM\BJORKLUND'S ALGORITHM\MAIN.CPP
C:\USERS\SERGIO\DOCUMENTS\VISUAL STUDIO 2013\PROJECTS\BJORKLUND'S ALGORITHM\BJORKLUND'S ALGORITHM\DEBUG\VC120.PDB
C:\USERS\SERGIO\DOCUMENTS\VISUAL STUDIO 2013\PROJECTS\BJORKLUND'S ALGORITHM\BJORKLUND'S ALGORITHM\DEBUG\VC120.IDB
C:\USERS\SERGIO\DOCUMENTS\VISUAL STUDIO 2013\PROJECTS\BJORKLUND'S ALGORITHM\BJORKLUND'S ALGORITHM\DEBUG\MAIN.OBJ
